<svg viewBox="0 0 900 900" width="256" xmlns="http://www.w3.org/2000/svg">
    <defs>
      <polygon
        id="hexagon"
        points="300,150 225,280 75,280 0,150 75,20 225,20"
        fill="none"
        stroke="orange"
        stroke-width="1%"
        pathLength="6"
        stroke-dasharray="4 2"
      >
        <animate
          attributeName="stroke-dashoffset"
          by="-6"
          dur="2s"
          calcMode="spline"
          keySplines="0.5 0.1 0.7 0.9"
          repeatCount="indefinite"
        />
      </polygon>
    </defs>

    <use href="#hexagon" x="375" y="170" stroke-dashoffset="-3" />
    <use href="#hexagon" x="150" y="300" stroke-dashoffset="-1" />
    <use href="#hexagon" x="375" y="430" stroke-dashoffset="1" />
  </svg>
